{
	"definitions": {
		"pagelen": {
			"type": "integer",
			"format": "int32",
			"example": "10"
		},
		"values": {
			"type": "array",
			"items": {
				"type": "object",
				"properties": {
					"scm": {
						"type": "string",
						"example": "git"
					},
					"website": {
						"type": "string",
						"format": "nullable"
					},
					"has_wiki": {
						"type": "boolean"
					},
					"uuid": {
						"type": "string",
						"example": "{9a1c5de0-8457-4289-8c6b-83e09575a2e5}"
					},
					"links": {
						"type": "object",
						"properties": {
							"watchers": {
								"type": "object",
								"properties": {
									"href": {
										"type": "string",
										"example": "https://api.bitbucket.org/2.0/repositories/code_forever/my-sample-repo-1/watchers"
									}
								}
							},
							"branches": {
								"type": "object",
								"properties": {
									"href": {
										"type": "string",
										"example": "https://api.bitbucket.org/2.0/repositories/code_forever/my-sample-repo-1/refs/branches"
									}
								}
							},
							"tags": {
								"type": "object",
								"properties": {
									"href": {
										"type": "string",
										"example": "https://api.bitbucket.org/2.0/repositories/code_forever/my-sample-repo-1/refs/tags"
									}
								}
							},
							"commits": {
								"type": "object",
								"properties": {
									"href": {
										"type": "string",
										"example": "https://api.bitbucket.org/2.0/repositories/code_forever/my-sample-repo-1/commits"
									}
								}
							},
							"clone": {
								"type": "array",
								"items": {
									"type": "object",
									"properties": {
										"href": {
											"type": "string",
											"example": "https://code_forever@bitbucket.org/code_forever/my-sample-repo-1.git"
										},
										"name": {
											"type": "string",
											"example": "https"
										}
									}
								}
							},
							"self": {
								"type": "object",
								"properties": {
									"href": {
										"type": "string",
										"example": "https://api.bitbucket.org/2.0/repositories/code_forever/my-sample-repo-1"
									}
								}
							},
							"source": {
								"type": "object",
								"properties": {
									"href": {
										"type": "string",
										"example": "https://api.bitbucket.org/2.0/repositories/code_forever/my-sample-repo-1/src"
									}
								}
							},
							"html": {
								"type": "object",
								"properties": {
									"href": {
										"type": "string",
										"example": "https://bitbucket.org/code_forever/my-sample-repo-1"
									}
								}
							},
							"avatar": {
								"type": "object",
								"properties": {
									"href": {
										"type": "string",
										"example": "https://bytebucket.org/ravatar/%7B9a1c5de0-8457-4289-8c6b-83e09575a2e5%7D?ts=default"
									}
								}
							},
							"hooks": {
								"type": "object",
								"properties": {
									"href": {
										"type": "string",
										"example": "https://api.bitbucket.org/2.0/repositories/code_forever/my-sample-repo-1/hooks"
									}
								}
							},
							"forks": {
								"type": "object",
								"properties": {
									"href": {
										"type": "string",
										"example": "https://api.bitbucket.org/2.0/repositories/code_forever/my-sample-repo-1/forks"
									}
								}
							},
							"downloads": {
								"type": "object",
								"properties": {
									"href": {
										"type": "string",
										"example": "https://api.bitbucket.org/2.0/repositories/code_forever/my-sample-repo-1/downloads"
									}
								}
							},
							"pullrequests": {
								"type": "object",
								"properties": {
									"href": {
										"type": "string",
										"example": "https://api.bitbucket.org/2.0/repositories/code_forever/my-sample-repo-1/pullrequests"
									}
								}
							}
						}
					},
					"fork_policy": {
						"type": "string",
						"example": "allow_forks"
					},
					"full_name": {
						"type": "string",
						"example": "code_forever/my-sample-repo-1"
					},
					"name": {
						"type": "string",
						"example": "my-sample-repo-1"
					},
					"project": {
						"type": "object",
						"properties": {
							"links": {
								"type": "object",
								"properties": {
									"self": {
										"type": "object",
										"properties": {
											"href": {
												"type": "string",
												"example": "https://api.bitbucket.org/2.0/workspaces/code_forever/projects/BIT"
											}
										}
									},
									"html": {
										"type": "object",
										"properties": {
											"href": {
												"type": "string",
												"example": "https://bitbucket.org/code_forever/workspace/projects/BIT"
											}
										}
									},
									"avatar": {
										"type": "object",
										"properties": {
											"href": {
												"type": "string",
												"example": "https://bitbucket.org/account/user/code_forever/projects/BIT/avatar/32?ts=1619977671"
											}
										}
									}
								}
							},
							"type": {
								"type": "string",
								"example": "project"
							},
							"name": {
								"type": "string",
								"example": "bitbucket-cloud-data-collector"
							},
							"key": {
								"type": "string",
								"example": "BIT"
							},
							"uuid": {
								"type": "string",
								"example": "{f7f28dad-a747-4859-89d0-6705d1681b34}"
							}
						}
					},
					"language": {
						"type": "string",
						"example": ""
					},
					"created_on": {
						"type": "string",
						"example": "2021-05-02T17:47:51.298575+00:00"
					},
					"mainbranch": {
						"type": "object",
						"properties": {
							"type": {
								"type": "string",
								"example": "branch"
							},
							"name": {
								"type": "string",
								"example": "master"
							}
						}
					},
					"workspace": {
						"type": "object",
						"properties": {
							"slug": {
								"type": "string",
								"example": "code_forever"
							},
							"type": {
								"type": "string",
								"example": "workspace"
							},
							"name": {
								"type": "string",
								"example": "Ankit Prasad"
							},
							"links": {
								"type": "object",
								"properties": {
									"self": {
										"type": "object",
										"properties": {
											"href": {
												"type": "string",
												"example": "https://api.bitbucket.org/2.0/workspaces/code_forever"
											}
										}
									},
									"html": {
										"type": "object",
										"properties": {
											"href": {
												"type": "string",
												"example": "https://bitbucket.org/code_forever/"
											}
										}
									},
									"avatar": {
										"type": "object",
										"properties": {
											"href": {
												"type": "string",
												"example": "https://bitbucket.org/workspaces/code_forever/avatar/?ts=1613678854"
											}
										}
									}
								}
							},
							"uuid": {
								"type": "string",
								"example": "{ee638532-ca94-40bd-9e22-219b5e07c123}"
							}
						}
					},
					"has_issues": {
						"type": "boolean"
					},
					"owner": {
						"type": "object",
						"properties": {
							"display_name": {
								"type": "string",
								"example": "Ankit Prasad"
							},
							"uuid": {
								"type": "string",
								"example": "{ee638532-ca94-40bd-9e22-219b5e07c123}"
							},
							"links": {
								"type": "object",
								"properties": {
									"self": {
										"type": "object",
										"properties": {
											"href": {
												"type": "string",
												"example": "https://api.bitbucket.org/2.0/users/%7Bee638532-ca94-40bd-9e22-219b5e07c123%7D"
											}
										}
									},
									"html": {
										"type": "object",
										"properties": {
											"href": {
												"type": "string",
												"example": "https://bitbucket.org/%7Bee638532-ca94-40bd-9e22-219b5e07c123%7D/"
											}
										}
									},
									"avatar": {
										"type": "object",
										"properties": {
											"href": {
												"type": "string",
												"example": "https://secure.gravatar.com/avatar/39cc7db58ea5cffe03cbbbca6be3e9f2?d=https%3A%2F%2Favatar-management--avatars.us-west-2.prod.public.atl-paas.net%2Finitials%2FAP-5.png"
											}
										}
									}
								}
							},
							"type": {
								"type": "string",
								"example": "user"
							},
							"nickname": {
								"type": "string",
								"example": "Ankit Prasad"
							},
							"account_id": {
								"type": "string",
								"example": "5ed962f97c0e780aba4737d7"
							}
						}
					},
					"updated_on": {
						"type": "string",
						"example": "2021-05-02T17:47:52.782616+00:00"
					},
					"size": {
						"type": "integer",
						"format": "int32",
						"example": "58915"
					},
					"type": {
						"type": "string",
						"example": "repository"
					},
					"slug": {
						"type": "string",
						"example": "my-sample-repo-1"
					},
					"is_private": {
						"type": "boolean"
					},
					"description": {
						"type": "string",
						"example": "It's a demo repo created by NG!"
					}
				}
			}
		},
		"page": {
			"type": "integer",
			"format": "int32",
			"example": "1"
		},
		"size": {
			"type": "integer",
			"format": "int32",
			"example": "2"
		}
	}
}